sqrs,b 
record, -24,-18,-12, , -24,-18,-12 
100,  48.84, 17.25, 63.62, , 95.97, 92.92, 79.82
101,  49.18, 49.97, 58.44, , 95.54, 91.25, 76.59
102,  49.53, 53.43, 79.52, , 93.18, 85.43, 84.48
103,   8.16, 16.31, 51.88, , 97.24, 97.24, 88.72
104,   8.13, 50.51, 65.91, , 94.97, 91.42, 80.42
105,   7.98, 48.03, 56.43, , 96.09, 91.84, 85.57
106,   7.78, 16.98, 52.42, , 97.78, 95.05, 82.47
107,   0.06, 15.70, 51.79, , 50.00, 94.28, 86.60
108,  41.49, 46.42, 61.96, , 88.73, 73.79, 73.42
109,  48.45, 49.02, 52.93, , 97.69, 95.99, 90.18
111,   8.00, 51.52, 70.50, , 96.60, 89.01, 77.72
112,  16.34, 51.92, 73.38, , 97.46, 92.65, 84.18
113,   0.07, 16.00, 52.26, , 50.00, 97.97, 87.93
114,  43.77, 59.98, 76.75, , 85.71, 71.79, 91.87
115,   0.00, 48.69, 50.52, ,  0.00, 96.14, 90.48
116,  39.32,  0.10, 15.77, , 97.78, 40.00, 96.07
117,  16.36, 49.92, 58.10, , 95.45, 86.16, 69.78
118,   0.00, 16.02, 49.63, ,     -, 93.88, 91.80
119,   0.00, 16.07, 51.96, ,     -, 83.96, 80.35
121,  49.04, 53.14, 77.69, , 91.29, 80.33, 80.21
122,  48.59, 49.56, 54.72, , 97.18, 95.05, 88.30
123,  49.41, 16.47, 51.93, , 95.43, 95.00, 85.81
124,   0.00, 15.73, 52.52, ,  0.00, 94.71, 84.97
200,  16.01, 50.18, 62.68, , 96.66, 92.99, 82.61
201,  48.39, 50.82, 74.16, , 90.98, 82.67, 74.02
202,  12.40, 13.25, 67.02, , 96.67, 84.93, 77.99
203,  46.67, 47.40, 56.23, , 95.78, 94.31, 86.92
205,  16.81, 50.75, 70.01, , 97.63, 92.70, 83.21
207,  18.47, 51.88, 79.15, , 96.39, 86.95, 77.35
208,  47.27, 48.46, 56.42, , 97.05, 94.86, 87.47
209,   7.86, 16.95, 52.92, , 98.51, 96.39, 92.25
210,   7.94, 50.41, 71.37, , 97.22, 92.82, 83.89
212,   8.32, 49.54, 55.01, , 97.94, 95.61, 92.02
213,   8.19, 16.44, 50.07, , 99.10, 98.23, 96.36
214,  24.11, 16.23, 55.03, , 97.00, 96.21, 86.02
215,  16.21, 50.34, 58.71, , 99.12, 97.51, 92.97
217,  48.62, 15.83, 50.41, , 97.18, 97.33, 92.17
219,   0.06, 17.26, 51.66, , 50.00, 97.76, 89.98
220,  47.87, 15.47, 50.41, , 97.24, 98.13, 91.43
221,  48.61, 50.15, 59.36, , 96.37, 94.23, 83.90
222,  49.10, 55.95, 81.47, , 93.52, 84.45, 91.17
223,   7.87, 49.02, 53.21, , 98.86, 96.08, 90.91
228,  49.09, 53.90, 79.45, , 91.97, 81.82, 82.50
230,   0.00, 49.33, 15.55, ,  0.00, 96.42, 92.04
231,   0.08, 15.65, 51.72, , 33.33, 93.90, 81.40
232,  48.82, 52.73, 77.85, , 90.06, 80.80, 78.21
233,   0.08, 16.01, 53.65, , 66.67, 97.39, 92.40
234,  16.11, 49.37, 56.22, , 98.93, 96.17, 89.82
