sqrs125,e, , , , , , , b, , , , , , , m, , , , , , , e, , , , , , , b, , , , , , , m 
record, -6, 0, 6, 12, 18, 24, ,-6, 0, 6, 12, 18, 24, ,-6, 0, 6, 12, 18, 24, ,-6, 0, 6, 12, 18, 24, ,-6, 0, 6, 12, 18, 24, ,-6, 0, 6, 12, 18, 24 
100,  75.18, 86.65, 95.22, 98.90, 99.74, 99.95, , 97.37, 99.42, 99.74, 99.89, 99.95, 99.95, , 69.51, 78.18, 89.17, 97.21, 99.95, 99.95, , 70.41, 76.37, 89.97, 98.90, 99.84,100.00, , 98.41, 99.53, 99.68, 99.95,100.00,100.00, , 93.89, 95.57, 93.86, 96.81,100.00,100.00, ,
101,  72.29, 83.91, 93.24, 98.03, 99.74,100.00, , 96.65, 99.34, 99.93,100.00,100.00,100.00, , 67.24, 76.76, 88.25, 98.88, 99.93,100.00, , 62.03, 67.41, 82.51, 99.27,100.00,100.00, , 97.23, 99.54, 99.87,100.00,100.00,100.00, , 91.02, 94.12, 90.87, 97.35, 99.93,100.00, ,
102,  26.03, 27.73, 71.28, 97.80, 99.45, 99.95, , 26.80, 95.39, 99.95,100.00,100.00,100.00, , 13.07, 28.45, 86.99, 97.20, 99.95,100.00, , 41.18, 55.13, 88.78, 98.45, 99.83,100.00, , 95.87, 99.43, 99.73,100.00,100.00,100.00, , 77.02, 84.50, 93.95, 96.25,100.00,100.00, ,
103,  63.97, 77.10, 91.27, 97.69, 99.71, 99.94, , 92.71, 98.55, 99.83, 99.94, 99.94, 99.94, , 62.29, 72.06, 81.78, 96.36, 99.83, 99.94, , 68.40, 68.01, 77.43, 95.80,100.00,100.00, , 94.13, 98.27, 99.48,100.00,100.00,100.00, , 92.84, 93.54, 94.08, 95.42, 99.83,100.00, ,
104,  37.53, 37.75, 50.94, 88.21, 92.25, 92.62, , 30.48, 54.55, 89.01, 91.81, 92.41, 92.57, , 22.51, 26.87, 54.07, 85.08, 92.41, 92.89, , 49.05, 56.44, 78.05, 96.69, 99.65, 99.77, , 94.81, 98.64, 99.58, 99.77, 99.77, 99.77, , 80.69, 83.58, 90.61, 96.17, 99.48, 99.71, ,
105,  70.86, 81.81, 90.53, 95.87, 97.77, 97.96, , 94.48, 97.40, 97.87, 97.96, 97.96, 97.96, , 66.03, 75.55, 88.31, 96.33, 98.10, 98.10, , 73.91, 77.91, 88.36, 97.00, 98.27, 98.41, , 97.14, 98.27, 98.14, 98.37, 98.32, 98.32, , 92.70, 94.82, 93.33, 96.38, 98.51, 98.46, ,
106,  59.73, 71.05, 81.72, 86.08, 88.33, 88.44, , 82.43, 86.50, 88.03, 88.33, 88.38, 88.27, , 56.54, 65.27, 75.53, 86.91, 88.68, 88.44, , 62.96, 64.99, 77.09, 96.31, 99.87,100.00, , 94.78, 98.79, 99.80,100.00,100.00,100.00, , 90.90, 92.33, 91.17, 96.03,100.00,100.00, ,
107,  60.48, 74.50, 89.52, 97.59, 99.44, 99.89, , 92.43, 98.54, 99.89, 99.83, 99.89, 99.89, , 61.60, 70.63, 82.06, 95.63, 99.78, 99.83, , 73.45, 72.19, 79.73, 94.62, 99.38,100.00, , 93.59, 98.38, 99.66, 99.89,100.00,100.00, , 92.98, 93.82, 93.79, 93.63, 99.50, 99.94, ,
108,  31.82, 35.27, 60.68, 81.89, 85.00, 85.81, , 35.95, 81.82, 85.74, 86.69, 87.03, 86.76, , 20.34, 35.74, 68.11, 82.03, 85.88, 86.62, , 38.51, 54.26, 80.39, 95.28, 98.74, 99.37, , 95.68, 97.58, 98.75, 99.69, 99.69, 99.69, , 77.18, 80.15, 86.15, 93.53, 98.76, 99.61, ,
109,  65.32, 79.04, 89.66, 96.24, 99.29, 99.81, , 92.28, 97.67, 99.33, 99.76, 99.76, 99.76, , 62.93, 71.84, 82.99, 95.09, 99.33, 99.76, , 74.07, 75.51, 82.98, 94.35, 99.57,100.00, , 96.08, 98.80, 99.67,100.00,100.00,100.00, , 94.63, 95.14, 94.93, 96.24, 99.62,100.00, ,
111,  32.38, 35.64, 62.73, 89.30, 90.26, 90.26, , 29.50, 84.63, 90.77, 90.43, 90.32, 90.32, , 16.78, 31.19, 75.28, 88.18, 89.92, 90.37, , 44.96, 56.22, 83.70, 97.42, 99.88,100.00, , 94.24, 99.40,100.00,100.00,100.00,100.00, , 74.50, 85.76, 92.53, 96.79, 99.81,100.00, ,
112,  41.54, 45.95, 85.93, 97.92, 99.91,100.00, , 40.27, 98.48, 99.86,100.00,100.00,100.00, , 27.48, 36.10, 88.16, 97.54, 99.91,100.00, , 59.14, 68.60, 90.70, 97.78, 99.95,100.00, , 97.81, 99.66, 99.72,100.00,100.00,100.00, , 87.88, 89.23, 95.05, 97.21, 99.91,100.00, ,
113,  61.82, 75.10, 88.84, 96.95, 99.67, 99.87, , 93.16, 98.01, 99.67, 99.87, 99.87, 99.87, , 61.89, 71.38, 81.74, 95.15, 99.80, 99.87, , 61.94, 62.11, 69.69, 90.18, 97.91, 99.87, , 91.16, 96.85, 99.08, 99.87, 99.93, 99.93, , 89.44, 88.55, 92.21, 91.27, 99.14, 99.93, ,
114,  26.12, 28.80, 29.61, 29.68, 29.30, 29.43, , 27.12, 29.11, 29.05, 28.93, 28.74, 28.80, , 12.09, 24.88, 27.99, 29.68, 29.05, 28.93, , 42.84, 61.60, 92.41, 99.79,100.00,100.00, , 95.39, 99.15,100.00,100.00,100.00,100.00, , 70.04, 77.78, 87.02, 99.79,100.00,100.00, ,
115,  60.54, 72.88, 87.42, 95.97, 99.51, 99.94, , 88.58, 97.68, 99.63, 99.94, 99.94, 99.94, , 58.64, 67.07, 77.64, 92.18, 99.76, 99.94, , 68.11, 63.66, 71.62, 88.21, 99.69,100.00, , 92.47, 97.80, 99.45,100.00,100.00,100.00, , 93.39, 91.96, 93.73, 92.18, 99.57,100.00, ,
116,  55.38, 65.99, 80.22, 91.08, 97.37, 98.66, , 80.52, 93.70, 97.72, 98.71, 98.86, 98.86, , 53.35, 62.77, 73.57, 84.48, 96.78, 98.86, , 81.18, 73.94, 75.71, 84.30, 97.96, 99.85, , 86.57, 96.87, 99.00, 99.75,100.00,100.00, , 91.19, 94.34, 95.25, 94.46, 96.87,100.00, ,
117,  53.19, 58.96, 64.49, 95.64, 99.45, 99.92, , 60.20, 84.97, 99.45, 99.92, 99.92, 99.92, , 43.30, 48.13, 73.29, 95.72, 99.92, 99.92, , 44.29, 50.10, 70.35, 93.38, 98.99,100.00, , 94.15, 98.55, 99.22,100.00,100.00,100.00, , 83.48, 88.41, 86.89, 92.75, 99.53,100.00, ,
118,  62.47, 74.63, 88.15, 96.14, 99.79, 99.95, , 88.20, 97.03, 99.48, 99.84, 99.90, 99.90, , 58.98, 69.21, 78.39, 92.64, 99.79, 99.95, , 72.37, 71.32, 79.63, 94.90, 99.95,100.00, , 95.26, 98.83, 99.69,100.00,100.00,100.00, , 94.88, 94.31, 95.97, 95.74, 99.90,100.00, ,
119,  63.40, 76.64, 89.64, 96.99, 99.52,100.00, , 91.93, 98.62, 99.76,100.00,100.00,100.00, , 61.95, 72.07, 80.79, 95.48, 99.64,100.00, , 67.11, 66.51, 75.93, 94.93, 99.70,100.00, , 92.27, 98.26, 99.58,100.00,100.00,100.00, , 90.74, 91.65, 92.04, 93.68, 99.52,100.00, ,
121,  37.88, 39.17, 86.54, 97.31, 99.36, 99.87, , 40.13, 98.46, 99.74, 99.87, 99.87, 99.87, , 28.21, 57.18, 90.00, 95.83, 99.62, 99.87, , 42.98, 56.52, 84.64, 93.13, 99.61,100.00, , 96.46, 99.10, 99.68,100.00,100.00,100.00, , 85.11, 88.06, 91.59, 94.56, 99.87,100.00, ,
122,  68.40, 82.18, 92.79, 98.30, 99.71, 99.95, , 96.11, 99.42, 99.90,100.00,100.00,100.00, , 64.46, 74.44, 86.95, 96.69, 99.95,100.00, , 74.18, 76.62, 86.01, 98.20, 99.81, 99.95, , 97.67, 99.46, 99.85, 99.95, 99.95, 99.95, , 94.50, 96.04, 94.85, 96.50, 99.76, 99.95, ,
123,  59.42, 70.76, 87.23, 96.69,100.00,100.00, , 88.97, 97.64, 99.84,100.00,100.00,100.00, , 58.31, 68.95, 79.35, 92.99, 99.92,100.00, , 56.27, 53.20, 62.65, 87.52,100.00,100.00, , 87.93, 96.65, 99.29,100.00,100.00,100.00, , 86.55, 87.76, 90.56, 88.99, 99.76,100.00, ,
124,  64.45, 77.91, 90.49, 97.29, 98.90, 99.27, , 91.81, 97.95, 99.12, 99.34, 99.27, 99.27, , 61.52, 71.32, 82.08, 95.39, 99.20, 99.27, , 57.66, 57.57, 69.30, 94.46, 99.78,100.00, , 92.28, 98.24, 99.41,100.00,100.00,100.00, , 90.43, 90.70, 90.34, 93.14, 99.71,100.00, ,
200,  71.59, 81.32, 84.82, 96.26, 98.29, 98.71, , 85.89, 94.60, 98.02, 98.52, 98.62, 98.71, , 63.88, 72.69, 84.69, 96.36, 98.57, 98.80, , 72.09, 77.63, 91.36, 99.52, 99.95, 99.95, , 98.52, 99.61, 99.91, 99.95, 99.95, 99.95, , 93.83, 95.40, 94.44, 98.96, 99.91, 99.95, ,
201,  65.02, 72.19, 81.92, 95.40, 98.95, 99.01, , 72.32, 86.00, 98.69, 99.08, 99.15, 99.15, , 56.21, 64.89, 76.86, 91.65, 98.62, 99.15, , 56.45, 69.36, 80.44, 93.67, 99.67, 99.80, , 97.95, 98.87, 99.34, 99.87, 99.93, 99.93, , 90.38, 88.76, 90.27, 95.81, 99.80, 99.93, ,
202,  75.20, 86.42, 94.17, 97.86, 99.09, 99.31, , 96.15, 98.72, 99.36, 99.41, 99.36, 99.36, , 70.28, 80.44, 89.90, 97.49, 99.41, 99.41, , 69.04, 75.88, 89.81, 96.72, 99.95,100.00, , 98.41, 99.35, 99.68,100.00,100.00,100.00, , 93.59, 94.59, 93.39, 96.00, 99.95,100.00, ,
203,  61.87, 71.87, 77.59, 80.94, 80.98, 81.22, , 78.15, 80.65, 81.18, 81.22, 81.38, 81.26, , 57.60, 64.93, 76.14, 82.35, 81.58, 81.34, , 75.43, 80.13, 89.95, 99.21, 99.75, 99.75, , 98.08, 99.26, 99.65, 99.70, 99.75, 99.75, , 95.01, 96.24, 94.54, 98.65, 99.75, 99.70, ,
205,  73.69, 83.78, 92.55, 98.59, 99.59, 99.68, , 93.55, 99.05, 99.82, 99.82, 99.82, 99.82, , 67.83, 78.10, 87.69, 97.82, 99.77, 99.82, , 74.51, 79.83, 92.46, 98.91,100.00,100.00, , 98.90, 99.41, 99.91,100.00,100.00,100.00, , 95.28, 95.82, 95.54, 98.04,100.00,100.00, ,
207,  44.91, 48.81, 85.24, 96.86, 98.49, 98.74, , 45.04, 90.08, 98.62, 98.68, 98.68, 98.81, , 35.55, 50.06, 86.37, 97.49, 98.81, 98.74, , 50.78, 62.41, 85.83, 97.84, 99.68, 99.94, , 98.08, 99.51, 99.81, 99.87, 99.87, 99.94, , 88.30, 88.36, 92.34, 96.82, 99.94, 99.94, ,
208,  62.29, 73.62, 81.21, 93.52, 96.88, 97.74, , 84.61, 86.34, 96.64, 97.62, 97.66, 97.62, , 58.31, 66.52, 79.07, 94.42, 97.87, 97.78, , 78.01, 80.88, 90.49, 98.36, 99.49, 99.75, , 98.24, 99.20, 99.58, 99.71, 99.71, 99.71, , 95.11, 97.18, 95.11, 98.54, 99.54, 99.62, ,
209,  69.39, 81.14, 91.54, 97.42, 99.64,100.00, , 95.24, 99.25, 99.92,100.00,100.00,100.00, , 63.32, 73.36, 86.03, 95.28, 99.80,100.00, , 82.30, 83.91, 89.97, 97.73, 99.68, 99.96, , 98.24, 99.56, 99.76, 99.96, 99.96, 99.96, , 96.32, 97.21, 97.35, 96.85, 99.92, 99.96, ,
210,  70.15, 77.18, 82.53, 88.75, 89.79, 89.61, , 83.17, 88.52, 89.93, 89.66, 89.61, 89.52, , 63.11, 71.01, 81.03, 88.11, 89.84, 89.75, , 73.90, 80.24, 92.71, 98.69, 99.85, 99.95, , 98.81, 99.80, 99.85, 99.95, 99.95, 99.95, , 94.56, 95.37, 95.41, 98.33, 99.90, 99.95, ,
212,  68.49, 82.63, 92.52, 97.59, 99.17, 99.96, , 95.40, 99.17, 99.56, 99.91, 99.96, 99.96, , 64.86, 74.57, 85.95, 93.83, 99.21, 99.96, , 78.56, 80.86, 87.65, 96.75, 99.34,100.00, , 98.11, 99.47, 99.65,100.00,100.00,100.00, , 95.55, 97.48, 95.76, 96.58, 99.39,100.00, ,
213,  57.81, 67.93, 82.85, 93.63, 98.41, 99.48, , 85.74, 96.22, 99.19, 99.63, 99.78, 99.78, , 56.30, 66.41, 75.93, 88.52, 98.81, 99.78, , 89.56, 85.98, 87.59, 92.50, 98.77, 99.70, , 92.71, 97.82, 99.55, 99.81, 99.96, 99.96, , 94.94, 96.55, 97.85, 96.33, 99.11, 99.96, ,
214,  68.33, 81.37, 92.55, 98.94, 99.68, 99.79, , 95.05, 98.72, 99.47, 99.79, 99.79, 99.79, , 64.56, 74.29, 86.16, 97.82, 99.84, 99.84, , 70.28, 72.81, 83.41, 98.94,100.00,100.00, , 96.44, 99.25, 99.63,100.00,100.00,100.00, , 92.74, 94.64, 93.05, 97.25,100.00,100.00, ,
215,  73.27, 84.40, 92.92, 96.96, 99.21, 99.61, , 92.84, 97.32, 99.18, 99.61, 99.68, 99.68, , 66.23, 75.60, 89.48, 98.39, 99.39, 99.53, , 84.11, 86.66, 94.47, 99.67,100.00,100.00, , 99.12, 99.82,100.00,100.00,100.00,100.00, , 97.11, 97.73, 97.43, 99.57,100.00,100.00, ,
217,  59.95, 71.71, 85.53, 92.95, 97.18, 98.16, , 87.21, 95.50, 97.72, 97.99, 98.10, 98.10, , 58.21, 66.83, 76.53, 91.11, 97.94, 98.21, , 71.86, 69.49, 76.05, 90.36, 98.79, 99.94, , 92.79, 98.33, 99.56, 99.78, 99.94, 99.94, , 92.75, 92.08, 94.83, 92.46, 98.42, 99.94, ,
219,  63.17, 76.14, 90.86, 98.20, 99.77,100.00, , 93.18, 98.76,100.00,100.00,100.00,100.00, , 62.44, 72.02, 82.57, 96.45,100.00,100.00, , 69.70, 68.98, 77.56, 96.51, 99.89,100.00, , 95.05, 98.65, 99.61,100.00,100.00,100.00, , 90.89, 92.47, 92.19, 95.32, 99.94,100.00, ,
220,  57.91, 71.13, 86.66, 95.34, 99.47,100.00, , 89.14, 97.93, 99.65,100.00,100.00,100.00, , 58.38, 67.65, 77.98, 91.09, 99.70,100.00, , 69.23, 67.28, 72.39, 88.06, 99.65,100.00, , 91.74, 97.93, 99.53,100.00,100.00,100.00, , 93.74, 92.72, 95.04, 93.52, 99.65,100.00, ,
221,  70.54, 82.38, 89.95, 97.72, 98.86, 99.01, , 91.53, 95.99, 99.01, 99.06, 99.01, 99.01, , 64.50, 73.96, 86.29, 96.73, 99.16, 99.06, , 71.32, 76.19, 87.61, 98.65, 99.90,100.00, , 97.88, 99.44, 99.80,100.00,100.00,100.00, , 93.74, 95.95, 94.01, 96.59, 99.95,100.00, ,
222,  40.31, 43.10, 81.90, 91.49, 94.52, 95.56, , 55.10, 92.63, 94.75, 95.37, 95.51, 95.65, , 29.40, 57.37, 80.86, 91.78, 94.38, 95.13, , 58.63, 75.68, 90.03, 97.98, 99.11, 99.70, , 98.23, 99.09, 99.65, 99.80, 99.85, 99.85, , 92.42, 92.74, 94.01, 97.15, 99.25, 99.65, ,
223,  60.35, 73.81, 83.36, 91.72, 92.59, 92.95, , 82.81, 86.31, 90.00, 92.86, 93.18, 93.18, , 56.84, 65.08, 76.22, 89.81, 93.54, 93.36, , 74.68, 76.81, 84.31, 97.11, 99.76,100.00, , 96.71, 99.37, 99.95,100.00,100.00,100.00, , 93.28, 95.78, 94.80, 97.10,100.00,100.00, ,
228,  51.20, 52.73, 74.57, 77.92, 79.51, 80.09, , 54.84, 78.27, 79.86, 80.45, 80.50, 80.50, , 39.87, 58.66, 77.22, 78.74, 79.80, 80.09, , 56.40, 71.55, 97.39, 99.77, 99.93, 99.93, , 98.11, 99.78, 99.93, 99.93, 99.93, 99.93, , 89.58, 87.71, 95.36, 99.93, 99.93, 99.93, ,
230,  61.92, 74.23, 87.63, 96.77, 99.57,100.00, , 89.67, 97.58, 99.62,100.00,100.00,100.00, , 60.19, 70.25, 79.45, 93.54, 99.68,100.00, , 70.66, 69.07, 76.88, 93.45, 99.78,100.00, , 93.65, 98.80, 99.73,100.00,100.00,100.00, , 93.95, 94.23, 94.32, 94.20, 99.78,100.00, ,
231,  62.60, 75.04, 89.75, 97.18, 99.77, 99.92, , 91.55, 98.75, 99.61, 99.92,100.00,100.00, , 60.09, 70.50, 80.67, 94.05, 99.30,100.00, , 54.79, 55.11, 66.03, 90.33, 99.77, 99.92, , 91.98, 98.13, 98.99, 99.92,100.00,100.00, , 88.48, 90.64, 90.92, 91.76, 98.91,100.00, ,
232,  44.98, 49.43, 90.71, 97.71, 98.92, 99.12, , 48.22, 96.43, 98.86, 99.12, 99.19, 99.19, , 29.76, 53.00, 86.73, 96.84, 99.19, 99.06, , 46.65, 61.17, 81.49, 97.32, 99.80,100.00, , 97.28, 98.90, 99.66,100.00,100.00,100.00, , 84.35, 87.93, 92.13, 94.79, 99.93,100.00, ,
233,  67.28, 81.26, 91.92, 97.58, 99.02, 99.22, , 93.24, 98.16, 99.10, 99.26, 99.22, 99.26, , 64.62, 73.37, 85.16, 96.99, 99.26, 99.30, , 80.89, 82.12, 88.90, 98.42, 99.88,100.00, , 97.67, 99.60, 99.84,100.00,100.00,100.00, , 95.50, 96.71, 96.04, 97.95,100.00,100.00, ,
234,  69.01, 83.02, 93.54, 98.12, 99.56, 99.96, , 96.12, 99.21, 99.65, 99.91,100.00,100.00, , 65.52, 75.60, 87.04, 97.12, 99.65,100.00, , 77.20, 80.19, 88.30, 98.81, 99.69,100.00, , 97.78, 99.47, 99.78, 99.91,100.00,100.00, , 95.30, 97.14, 95.50, 97.76, 99.69,100.00, ,
