gqrs,e, , , , , , , b, , , , , , , m, , , , , , , e, , , , , , , b, , , , , , , m 
record, -6, 0, 6, 12, 18, 24, ,-6, 0, 6, 12, 18, 24, 
100, 1826,1849,1895,1902,1902,1902, ,1900,1901,1902,1902,1902,1902, ,1863,1879,1892,1902,1902,1902, ,1237,840,386,36,0,0, ,79,11,2,0,0,0, ,1170,701,216,20,0,0, ,76,53,7,0,0,0, ,2,1,0,0,0,0, ,39,23,10,0,0,0, , 96.00, 97.21, 99.63,100.00,100.00,100.00, , 99.89, 99.95,100.00,100.00,100.00,100.00, , 97.95, 98.79, 99.47,100.00,100.00,100.00, , 59.61, 68.76, 83.08, 98.14,100.00,100.00, , 96.01, 99.42, 99.89,100.00,100.00,100.00, , 61.42, 72.83, 89.75, 98.96,100.00,100.00, ,
101, 1442,1471,1509,1521,1521,1521, ,1519,1520,1521,1521,1521,1521, ,1495,1493,1513,1521,1521,1521, ,1456,1012,547,71,2,2, ,109,13,5,2,2,2, ,1323,836,318,49,2,2, ,79,50,12,0,0,0, ,2,1,0,0,0,0, ,26,28,8,0,0,0, , 94.81, 96.72, 99.21, 99.93, 99.93, 99.93, , 99.80, 99.87, 99.93, 99.93, 99.93, 99.93, , 98.29, 98.10, 99.41, 99.93, 99.93, 99.93, , 49.72, 59.23, 73.35, 95.42, 99.74, 99.74, , 93.19, 99.02, 99.54, 99.74, 99.74, 99.74, , 53.03, 64.04, 82.51, 96.76, 99.74, 99.74, ,
102, 3,4,4,4,4,4, ,4,4,4,4,4,4, ,4,4,4,4,4,4, ,1200,867,467,83,1,0, ,153,23,7,0,0,0, ,1133,739,308,66,0,0, ,1,0,0,0,0,0, ,0,0,0,0,0,0, ,0,0,0,0,0,0, , 94.40, 94.89, 98.52, 99.73, 99.95,100.00, , 99.56,100.00,100.00,100.00,100.00,100.00, , 96.16, 97.47, 98.85, 99.45, 99.84,100.00, , 58.89, 66.59, 79.35, 95.63, 99.95,100.00, , 92.22, 98.75, 99.62,100.00,100.00,100.00, , 60.71, 70.60, 85.39, 96.48,100.00,100.00, ,
103, 1654,1681,1718,1728,1728,1728, ,1723,1726,1728,1728,1728,1728, ,1708,1709,1718,1727,1728,1728, ,1459,1192,733,182,6,1, ,337,39,10,2,1,1, ,1468,999,502,131,9,1, ,75,48,11,1,1,1, ,6,3,1,1,1,1, ,21,20,11,2,1,1, , 95.66, 97.22, 99.36, 99.94, 99.94, 99.94, , 99.65, 99.83, 99.94, 99.94, 99.94, 99.94, , 98.79, 98.84, 99.36, 99.88, 99.94, 99.94, , 53.13, 58.51, 70.09, 90.47, 99.65, 99.94, , 83.64, 97.79, 99.42, 99.88, 99.94, 99.94, , 53.78, 63.11, 77.39, 92.95, 99.48, 99.94, ,
104, 97,97,99,99,99,99, ,99,99,99,99,99,99, ,96,98,99,99,99,99, ,1263,967,584,134,10,8, ,197,38,12,8,7,7, ,1233,835,371,83,12,7, ,2,2,0,0,0,0, ,0,0,0,0,0,0, ,3,1,0,0,0,0, , 93.91, 94.18, 96.39, 98.65, 99.73, 99.57, , 98.82, 99.78, 99.73, 99.68, 99.73, 99.73, , 96.88, 97.20, 98.44, 99.57, 99.52, 99.46, , 58.00, 64.40, 75.40, 93.18, 99.46, 99.57, , 90.31, 97.99, 99.36, 99.57, 99.62, 99.62, , 59.33, 68.37, 83.13, 95.70, 99.35, 99.62, ,
105, 2027,2072,2116,2144,2145,2148, ,2137,2146,2148,2148,2148,2148, ,2095,2111,2125,2146,2146,2146, ,1206,878,421,76,35,31, ,109,36,29,32,32,32, ,1164,724,268,55,27,29, ,123,78,34,6,5,2, ,13,4,2,2,2,2, ,55,39,25,4,4,4, , 94.29, 96.33, 98.42, 99.72, 99.72, 99.86, , 99.40, 99.77, 99.86, 99.86, 99.86, 99.86, , 97.45, 98.19, 98.84, 99.81, 99.81, 99.77, , 62.58, 70.04, 83.18, 96.28, 98.08, 98.26, , 94.86, 98.04, 98.35, 98.22, 98.22, 98.22, , 64.16, 74.32, 88.57, 97.20, 98.44, 98.35, ,
106, 1624,1652,1683,1688,1694,1695, ,1688,1692,1694,1695,1695,1695, ,1657,1669,1685,1689,1693,1695, ,1467,1202,805,280,5,2, ,401,109,11,3,2,2, ,1532,1076,641,171,15,2, ,72,44,13,8,2,1, ,8,4,2,1,1,1, ,39,27,11,7,3,1, , 95.75, 97.41, 99.23, 99.53, 99.88, 99.94, , 99.53, 99.76, 99.88, 99.94, 99.94, 99.94, , 97.70, 98.41, 99.35, 99.59, 99.82, 99.94, , 52.54, 57.88, 67.64, 85.77, 99.71, 99.88, , 80.80, 93.95, 99.35, 99.82, 99.88, 99.88, , 51.96, 60.80, 72.44, 90.81, 99.12, 99.88, ,
107, 51,52,53,54,54,54, ,52,52,53,54,54,54, ,54,53,54,54,54,54, ,1469,1184,802,311,24,3, ,500,49,11,2,1,1, ,1552,1139,621,163,17,1, ,6,5,4,3,3,3, ,5,5,4,3,3,3, ,3,4,3,3,3,3, , 95.24, 96.97, 98.71, 99.66, 99.83, 99.83, , 99.55, 99.61, 99.78, 99.83, 99.83, 99.83, , 97.81, 98.37, 99.10, 99.83, 99.83, 99.83, , 53.63, 59.37, 68.71, 85.11, 98.67, 99.83, , 78.03, 97.32, 99.39, 99.89, 99.94, 99.94, , 52.93, 60.64, 74.01, 91.62, 99.05, 99.94, ,
108, 1387,1434,1461,1469,1468,1469, ,1465,1468,1468,1469,1468,1468, ,1449,1447,1462,1467,1468,1469, ,1363,995,513,103,54,52, ,146,66,57,53,56,58, ,1239,852,329,86,54,53, ,91,44,17,9,10,9, ,13,10,10,9,10,10, ,29,31,16,11,10,9, , 93.85, 97.03, 98.85, 99.39, 99.32, 99.39, , 99.12, 99.32, 99.32, 99.39, 99.32, 99.32, , 98.04, 97.91, 98.92, 99.26, 99.32, 99.39, , 50.47, 59.07, 74.04, 93.46, 96.46, 96.59, , 90.95, 95.70, 96.27, 96.52, 96.33, 96.20, , 53.94, 62.97, 81.65, 94.47, 96.46, 96.52, ,
109, 2009,2030,2070,2093,2096,2096, ,2090,2093,2097,2097,2096,2096, ,2050,2069,2070,2092,2098,2098, ,1286,1028,655,145,2,0, ,169,24,6,1,0,0, ,1316,895,412,71,2,0, ,90,69,29,6,3,3, ,9,6,2,2,3,3, ,49,30,29,7,1,1, , 95.71, 96.71, 98.62, 99.71, 99.86, 99.86, , 99.57, 99.71, 99.90, 99.90, 99.86, 99.86, , 97.67, 98.57, 98.62, 99.67, 99.95, 99.95, , 60.97, 66.38, 75.96, 93.52, 99.90,100.00, , 92.52, 98.87, 99.71, 99.95,100.00,100.00, , 60.90, 69.80, 83.40, 96.72, 99.90,100.00, ,
111, 1674,1700,1740,1769,1769,1767, ,1763,1767,1768,1767,1767,1767, ,1732,1737,1750,1770,1770,1769, ,1274,924,507,64,1,1, ,113,21,7,1,1,1, ,1202,774,303,33,1,1, ,102,76,36,7,7,9, ,13,9,8,9,9,9, ,44,39,26,6,6,7, , 94.26, 95.72, 97.97, 99.61, 99.61, 99.49, , 99.27, 99.49, 99.55, 99.49, 99.49, 99.49, , 97.52, 97.80, 98.54, 99.66, 99.66, 99.61, , 56.78, 64.79, 77.44, 96.51, 99.94, 99.94, , 93.98, 98.83, 99.61, 99.94, 99.94, 99.94, , 59.03, 69.18, 85.24, 98.17, 99.94, 99.94, ,
112, 2022,2058,2102,2111,2111,2111, ,2106,2111,2111,2111,2111,2111, ,2050,2080,2097,2110,2111,2111, ,1060,690,252,17,1,1, ,63,9,4,1,1,1, ,979,560,180,11,1,1, ,89,53,9,0,0,0, ,5,0,0,0,0,0, ,61,31,14,1,0,0, , 95.78, 97.49, 99.57,100.00,100.00,100.00, , 99.76,100.00,100.00,100.00,100.00,100.00, , 97.11, 98.53, 99.34, 99.95,100.00,100.00, , 65.61, 74.89, 89.29, 99.20, 99.95, 99.95, , 97.10, 99.58, 99.81, 99.95, 99.95, 99.95, , 67.68, 78.79, 92.09, 99.48, 99.95, 99.95, ,
113, 1439,1472,1495,1506,1506,1506, ,1499,1503,1506,1506,1506,1506, ,1479,1494,1495,1499,1506,1506, ,1646,1358,852,422,31,3, ,571,60,12,3,1,1, ,1628,1213,785,265,20,2, ,67,34,11,0,0,0, ,7,3,0,0,0,0, ,27,12,11,7,0,0, , 95.55, 97.74, 99.27,100.00,100.00,100.00, , 99.54, 99.80,100.00,100.00,100.00,100.00, , 98.21, 99.20, 99.27, 99.54,100.00,100.00, , 46.65, 52.01, 63.70, 78.11, 97.98, 99.80, , 72.42, 96.16, 99.21, 99.80, 99.93, 99.93, , 47.60, 55.19, 65.57, 84.98, 98.69, 99.87, ,
114, 1516,1525,1554,1573,1581,1582, ,1579,1583,1583,1582,1582,1581, ,1554,1550,1571,1580,1581,1583, ,1315,1004,634,141,4,4, ,230,49,11,4,4,4, ,1304,901,448,115,8,2, ,84,75,46,27,19,18, ,21,17,17,18,18,19, ,46,50,29,20,19,17, , 94.76, 95.32, 97.13, 98.32, 98.82, 98.88, , 98.69, 98.94, 98.94, 98.88, 98.88, 98.82, , 97.13, 96.88, 98.19, 98.75, 98.82, 98.94, , 53.62, 60.36, 71.08, 91.79, 99.75, 99.75, , 87.31, 97.00, 99.31, 99.75, 99.75, 99.75, , 54.44, 63.30, 77.85, 93.23, 99.50, 99.87, ,
115, 1565,1590,1616,1637,1637,1637, ,1625,1636,1637,1637,1637,1637, ,1608,1615,1628,1633,1637,1637, ,1539,1290,860,460,40,0, ,654,71,9,1,0,0, ,1610,1224,760,240,24,0, ,72,47,21,0,0,0, ,12,1,0,0,0,0, ,29,22,9,4,0,0, , 95.60, 97.13, 98.72,100.00,100.00,100.00, , 99.27, 99.94,100.00,100.00,100.00,100.00, , 98.23, 98.66, 99.45, 99.76,100.00,100.00, , 50.42, 55.21, 65.27, 78.06, 97.61,100.00, , 71.30, 95.84, 99.45, 99.94,100.00,100.00, , 49.97, 56.89, 68.17, 87.19, 98.56,100.00, ,
116, 1913,1927,1960,1993,2003,2003, ,1968,1996,1999,1998,1999,1999, ,1963,1958,1973,1978,1997,2000, ,1559,1364,1107,633,151,20, ,955,395,92,9,4,3, ,1668,1326,999,477,145,28, ,104,90,57,24,14,14, ,49,21,18,19,18,18, ,54,59,44,39,20,17, , 94.84, 95.54, 97.17, 98.81, 99.31, 99.31, , 97.57, 98.96, 99.11, 99.06, 99.11, 99.11, , 97.32, 97.07, 97.82, 98.07, 99.01, 99.16, , 55.10, 58.55, 63.91, 75.89, 92.99, 99.01, , 67.33, 83.48, 95.60, 99.55, 99.80, 99.85, , 54.06, 59.62, 66.39, 80.57, 93.23, 98.62, ,
117, 1221,1236,1265,1284,1284,1284, ,1278,1284,1284,1284,1284,1284, ,1254,1271,1271,1282,1284,1284, ,1487,1130,727,170,0,0, ,223,29,7,0,0,0, ,1420,991,453,82,1,0, ,63,48,19,0,0,0, ,6,0,0,0,0,0, ,30,13,13,2,0,0, , 95.09, 96.26, 98.52,100.00,100.00,100.00, , 99.53,100.00,100.00,100.00,100.00,100.00, , 97.66, 98.99, 98.99, 99.84,100.00,100.00, , 45.09, 52.24, 63.50, 88.31,100.00,100.00, , 85.14, 97.79, 99.46,100.00,100.00,100.00, , 46.90, 56.19, 73.72, 93.99, 99.92,100.00, ,
118, 1826,1855,1902,1915,1916,1916, ,1911,1914,1916,1916,1916,1916, ,1886,1892,1906,1914,1916,1916, ,1436,1198,795,245,21,1, ,465,48,7,2,1,1, ,1480,1112,555,147,9,1, ,90,61,14,1,0,0, ,5,2,0,0,0,0, ,30,24,10,2,0,0, , 95.30, 96.82, 99.27, 99.95,100.00,100.00, , 99.74, 99.90,100.00,100.00,100.00,100.00, , 98.43, 98.75, 99.48, 99.90,100.00,100.00, , 55.98, 60.76, 70.52, 88.66, 98.92, 99.95, , 80.43, 97.55, 99.64, 99.90, 99.95, 99.95, , 56.03, 62.98, 77.45, 92.87, 99.53, 99.95, ,
119, 1582,1603,1648,1661,1661,1661, ,1657,1660,1661,1661,1661,1661, ,1623,1630,1649,1657,1661,1661, ,1502,1233,771,396,33,6, ,403,70,21,7,4,5, ,1527,1142,640,184,21,8, ,79,58,13,0,0,0, ,4,1,0,0,0,0, ,38,31,12,4,0,0, , 95.24, 96.51, 99.22,100.00,100.00,100.00, , 99.76, 99.94,100.00,100.00,100.00,100.00, , 97.71, 98.13, 99.28, 99.76,100.00,100.00, , 51.30, 56.52, 68.13, 80.75, 98.05, 99.64, , 80.44, 95.95, 98.75, 99.58, 99.76, 99.70, , 51.52, 58.80, 72.04, 90.01, 98.75, 99.52, ,
121, 1461,1503,1549,1559,1559,1559, ,1554,1558,1559,1559,1559,1559, ,1529,1528,1547,1558,1558,1559, ,1253,936,459,21,1,1, ,73,15,4,1,1,1, ,1076,650,214,7,1,1, ,99,57,11,1,1,1, ,6,2,1,1,1,1, ,31,32,13,2,2,1, , 93.65, 96.35, 99.29, 99.94, 99.94, 99.94, , 99.62, 99.87, 99.94, 99.94, 99.94, 99.94, , 98.01, 97.95, 99.17, 99.87, 99.87, 99.94, , 53.83, 61.62, 77.14, 98.67, 99.94, 99.94, , 95.51, 99.05, 99.74, 99.94, 99.94, 99.94, , 58.69, 70.16, 87.85, 99.55, 99.94, 99.94, ,
122, 1972,2003,2048,2054,2054,2054, ,2048,2054,2054,2054,2054,2054, ,2005,2026,2040,2054,2054,2054, ,1241,895,463,67,1,1, ,119,12,5,1,1,1, ,1213,784,259,43,1,1, ,82,51,6,0,0,0, ,6,0,0,0,0,0, ,49,28,14,0,0,0, , 96.01, 97.52, 99.71,100.00,100.00,100.00, , 99.71,100.00,100.00,100.00,100.00,100.00, , 97.61, 98.64, 99.32,100.00,100.00,100.00, , 61.38, 69.12, 81.56, 96.84, 99.95, 99.95, , 94.51, 99.42, 99.76, 99.95, 99.95, 99.95, , 62.31, 72.10, 88.73, 97.95, 99.95, 99.95, ,
123, 1223,1234,1253,1268,1269,1269, ,1253,1267,1269,1269,1269,1269, ,1246,1252,1262,1265,1269,1269, ,1680,1403,1007,639,260,8, ,926,332,32,7,1,1, ,1754,1359,901,464,147,6, ,46,35,16,1,0,0, ,16,2,0,0,0,0, ,23,17,7,4,0,0, , 96.38, 97.24, 98.74, 99.92,100.00,100.00, , 98.74, 99.84,100.00,100.00,100.00,100.00, , 98.19, 98.66, 99.45, 99.68,100.00,100.00, , 42.13, 46.80, 55.44, 66.49, 83.00, 99.37, , 57.50, 79.24, 97.54, 99.45, 99.92, 99.92, , 41.53, 47.95, 58.34, 73.16, 89.62, 99.53, ,
124, 1311,1338,1353,1359,1360,1361, ,1360,1360,1359,1361,1361,1360, ,1327,1338,1353,1358,1360,1361, ,1600,1305,882,489,24,1, ,507,68,12,4,1,1, ,1662,1174,718,214,18,1, ,51,24,9,3,2,1, ,2,2,3,1,1,2, ,35,24,9,4,2,1, , 96.27, 98.24, 99.34, 99.78, 99.85, 99.93, , 99.85, 99.85, 99.78, 99.93, 99.93, 99.85, , 97.44, 98.17, 99.34, 99.71, 99.85, 99.93, , 45.13, 50.72, 60.62, 73.61, 98.27, 99.93, , 72.92, 95.25, 99.13, 99.71, 99.93, 99.93, , 44.49, 53.34, 65.41, 86.43, 98.70, 99.93, ,
200, 2080,2111,2154,2164,2164,2164, ,2162,2165,2165,2164,2164,2164, ,2123,2131,2156,2163,2164,2164, ,1112,782,348,48,7,5, ,100,13,5,4,7,7, ,1061,626,254,35,9,5, ,86,55,12,2,2,2, ,4,1,1,2,2,2, ,43,35,10,3,2,2, , 96.03, 97.46, 99.45, 99.86, 99.86, 99.86, , 99.77, 99.91, 99.91, 99.86, 99.86, 99.86, , 98.02, 98.39, 99.54, 99.86, 99.91, 99.86, , 65.18, 72.99, 86.10, 97.83, 99.68, 99.77, , 95.58, 99.40, 99.77, 99.82, 99.68, 99.68, , 66.70, 77.31, 89.47, 98.41, 99.59, 99.77, ,
201, 1426,1446,1468,1467,1491,1487, ,1467,1488,1489,1485,1486,1485, ,1457,1475,1479,1486,1492,1490, ,1314,945,586,211,84,4, ,218,98,22,8,2,2, ,1542,1083,631,194,32,3, ,93,73,51,52,28,32, ,52,31,30,34,33,34, ,62,44,40,33,27,29, , 93.89, 95.20, 96.65, 96.58, 98.16, 97.90, , 96.58, 97.96, 98.03, 97.76, 97.83, 97.76, , 95.92, 97.11, 97.37, 97.83, 98.22, 98.09, , 52.08, 60.51, 71.50, 87.44, 94.67, 99.73, , 87.08, 93.83, 98.55, 99.46, 99.87, 99.87, , 48.62, 57.70, 70.12, 88.47, 97.90, 99.80, ,
202, 1788,1824,1859,1861,1862,1863, ,1859,1861,1862,1863,1863,1863, ,1836,1843,1855,1862,1862,1863, ,1276,862,426,88,5,1, ,119,25,8,1,1,1, ,1186,773,306,43,4,1, ,82,46,11,9,8,7, ,11,9,8,7,7,7, ,34,27,15,8,8,7, , 95.56, 97.54, 99.41, 99.52, 99.57, 99.63, , 99.41, 99.52, 99.57, 99.63, 99.63, 99.63, , 98.18, 98.56, 99.20, 99.57, 99.57, 99.63, , 58.36, 67.92, 81.36, 95.49, 99.73, 99.95, , 93.99, 98.68, 99.57, 99.95, 99.95, 99.95, , 60.77, 70.46, 85.85, 97.74, 99.79, 99.95, ,
203, 2318,2360,2406,2433,2451,2447, ,2436,2435,2443,2447,2448,2447, ,2409,2418,2424,2440,2447,2446, ,1119,849,538,166,66,44, ,296,99,72,53,41,41, ,1139,795,441,132,61,49, ,158,116,70,43,25,29, ,40,41,33,29,28,29, ,67,58,52,36,29,30, , 93.51, 95.20, 97.06, 98.15, 98.87, 98.71, , 98.27, 98.23, 98.55, 98.71, 98.75, 98.71, , 97.18, 97.54, 97.78, 98.43, 98.71, 98.67, , 67.38, 73.47, 81.65, 93.51, 97.30, 98.24, , 89.14, 96.10, 97.14, 97.88, 98.35, 98.35, , 67.80, 75.23, 84.59, 94.87, 97.57, 98.04, ,
205, 2081,2122,2172,2185,2185,2185, ,2180,2184,2185,2185,2185,2185, ,2132,2140,2171,2185,2185,2185, ,1072,729,253,23,1,1, ,53,11,3,1,1,1, ,1021,575,162,9,1,1, ,109,68,18,5,5,5, ,10,6,5,5,5,5, ,58,50,19,5,5,5, , 95.05, 96.87, 99.18, 99.77, 99.77, 99.77, , 99.55, 99.73, 99.77, 99.77, 99.77, 99.77, , 97.32, 97.68, 99.14, 99.77, 99.77, 99.77, , 66.12, 74.52, 89.61, 98.96, 99.95, 99.95, , 97.64, 99.50, 99.86, 99.95, 99.95, 99.95, , 67.72, 78.90, 93.09, 99.59, 99.95, 99.95, ,
207, 1509,1543,1574,1588,1591,1591, ,1584,1588,1590,1591,1591,1591, ,1541,1562,1578,1591,1591,1591, ,1221,940,589,117,18,13, ,139,30,21,12,13,13, ,1160,748,333,91,27,13, ,83,49,18,4,1,1, ,8,4,2,1,1,1, ,51,30,14,1,1,1, , 94.79, 96.92, 98.87, 99.75, 99.94, 99.94, , 99.50, 99.75, 99.87, 99.94, 99.94, 99.94, , 96.80, 98.12, 99.12, 99.94, 99.94, 99.94, , 55.27, 62.14, 72.77, 93.14, 98.88, 99.19, , 91.93, 98.15, 98.70, 99.25, 99.19, 99.19, , 57.05, 67.62, 82.57, 94.59, 98.33, 99.19, ,
208, 2040,2064,2079,2108,2118,2119, ,2104,2115,2118,2118,2116,2119, ,2068,2078,2103,2114,2117,2118, ,1131,899,482,125,13,9, ,270,44,15,10,7,9, ,1150,848,451,95,15,9, ,94,70,55,26,16,15, ,30,19,16,16,18,15, ,66,56,31,20,17,16, , 95.40, 96.88, 97.58, 98.81, 99.22, 99.26, , 98.69, 99.14, 99.22, 99.22, 99.14, 99.26, , 97.09, 97.54, 98.60, 99.06, 99.18, 99.22, , 67.12, 72.29, 83.00, 94.92, 99.38, 99.55, , 89.71, 98.09, 99.34, 99.51, 99.67, 99.55, , 67.22, 73.61, 84.14, 96.14, 99.30, 99.55, ,
209, 2409,2454,2498,2519,2519,2519, ,2509,2516,2518,2519,2519,2519, ,2461,2481,2499,2519,2519,2519, ,1072,759,393,35,1,1, ,164,20,7,2,2,2, ,1046,700,248,43,3,2, ,110,65,21,0,0,0, ,10,3,1,0,0,0, ,58,38,20,0,0,0, , 95.63, 97.42, 99.17,100.00,100.00,100.00, , 99.60, 99.88, 99.96,100.00,100.00,100.00, , 97.70, 98.49, 99.21,100.00,100.00,100.00, , 69.20, 76.38, 86.41, 98.63, 99.96, 99.96, , 93.86, 99.21, 99.72, 99.92, 99.92, 99.92, , 70.17, 77.99, 90.97, 98.32, 99.88, 99.92, ,
210, 2056,2101,2149,2150,2157,2158, ,2149,2155,2157,2159,2159,2160, ,2130,2135,2156,2158,2158,2161, ,1059,779,244,23,1,1, ,60,11,3,1,1,1, ,996,566,192,14,2,1, ,139,94,46,45,38,37, ,46,40,38,36,36,35, ,65,60,39,37,37,34, , 93.65, 95.69, 97.82, 97.87, 98.19, 98.23, , 97.82, 98.09, 98.19, 98.28, 98.28, 98.32, , 97.01, 97.23, 98.09, 98.23, 98.23, 98.37, , 66.05, 72.98, 89.76, 98.85, 99.86, 99.86, , 97.20, 99.40, 99.77, 99.86, 99.86, 99.86, , 68.18, 79.05, 91.77, 99.27, 99.82, 99.86, ,
212, 2179,2223,2269,2285,2285,2285, ,2272,2285,2285,2285,2285,2285, ,2234,2246,2244,2284,2285,2285, ,1168,853,455,70,2,0, ,110,11,3,0,0,0, ,1183,786,282,37,1,0, ,106,62,16,0,0,0, ,13,0,0,0,0,0, ,51,39,41,1,0,0, , 95.36, 97.29, 99.30,100.00,100.00,100.00, , 99.43,100.00,100.00,100.00,100.00,100.00, , 97.77, 98.29, 98.21, 99.96,100.00,100.00, , 65.10, 72.27, 83.30, 97.03, 99.91,100.00, , 95.38, 99.52, 99.87,100.00,100.00,100.00, , 65.38, 74.08, 88.84, 98.41, 99.96,100.00, ,
213, 2345,2378,2416,2428,2430,2430, ,2426,2430,2430,2430,2430,2430, ,2402,2408,2426,2431,2430,2430, ,1167,990,504,133,8,0, ,370,36,3,0,0,0, ,1263,950,445,126,10,0, ,86,53,15,3,1,1, ,5,1,1,1,1,1, ,29,23,5,0,1,1, , 96.37, 97.67, 99.37, 99.85, 99.93, 99.93, , 99.78, 99.93, 99.93, 99.93, 99.93, 99.93, , 98.81, 99.07, 99.74, 99.96, 99.93, 99.93, , 69.04, 72.70, 84.19, 95.30, 99.70,100.00, , 87.92, 98.68, 99.89,100.00,100.00,100.00, , 67.87, 73.79, 85.82, 95.54, 99.63,100.00, ,
214, 1797,1824,1867,1876,1876,1876, ,1870,1875,1876,1876,1876,1876, ,1837,1847,1863,1873,1876,1876, ,1364,1067,595,122,10,2, ,244,41,8,2,1,1, ,1339,925,405,80,6,1, ,79,52,9,0,0,0, ,6,1,0,0,0,0, ,39,29,13,3,0,0, , 95.80, 97.23, 99.47,100.00,100.00,100.00, , 99.68, 99.95,100.00,100.00,100.00,100.00, , 97.92, 98.46, 99.31, 99.84,100.00,100.00, , 56.89, 63.13, 75.85, 93.90, 99.47, 99.89, , 88.47, 97.86, 99.58, 99.89, 99.95, 99.95, , 57.88, 66.67, 82.17, 95.91, 99.68, 99.95, ,
215, 2678,2728,2784,2791,2792,2792, ,2790,2792,2791,2792,2792,2792, ,2744,2765,2779,2793,2791,2792, ,872,553,174,18,2,1, ,59,10,3,1,1,1, ,914,469,148,13,2,1, ,116,66,10,3,2,2, ,4,2,3,2,2,2, ,50,29,15,1,3,2, , 95.85, 97.64, 99.64, 99.89, 99.93, 99.89, , 99.86, 99.93, 99.89, 99.89, 99.89, 99.89, , 98.21, 98.96, 99.46, 99.96, 99.89, 99.89, , 75.44, 83.15, 94.12, 99.36, 99.93, 99.96, , 97.93, 99.64, 99.89, 99.96, 99.96, 99.96, , 75.02, 85.50, 94.95, 99.54, 99.93, 99.96, ,
217, 352,360,367,372,372,372, ,372,371,371,372,372,372, ,367,367,368,372,372,372, ,1511,1239,855,508,51,6, ,563,82,16,8,3,3, ,1601,1195,721,257,33,4, ,23,15,8,3,3,3, ,3,4,4,3,3,3, ,8,8,7,3,3,3, , 95.45, 96.69, 97.83, 99.46, 99.84, 99.73, , 99.35, 99.67, 99.73, 99.84, 99.84, 99.84, , 97.45, 97.99, 98.43, 99.35, 99.78, 99.78, , 53.82, 59.01, 67.86, 78.32, 97.31, 99.67, , 76.50, 95.73, 99.14, 99.57, 99.84, 99.84, , 52.90, 60.21, 71.58, 87.70, 98.24, 99.78, ,
219, 1687,1727,1764,1772,1773,1773, ,1768,1771,1773,1773,1773,1773, ,1740,1753,1762,1766,1773,1773, ,1435,1163,738,394,54,81, ,440,171,41,41,49,42, ,1582,1196,790,280,43,23, ,86,46,9,1,0,0, ,5,2,0,0,0,0, ,33,20,11,7,0,0, , 95.15, 97.41, 99.49, 99.94,100.00,100.00, , 99.72, 99.89,100.00,100.00,100.00,100.00, , 98.14, 98.87, 99.38, 99.61,100.00,100.00, , 54.04, 59.76, 70.50, 81.81, 97.04, 95.63, , 80.07, 91.19, 97.74, 97.74, 97.31, 97.69, , 52.38, 59.44, 69.04, 86.31, 97.63, 98.72, ,
220, 1627,1648,1682,1694,1694,1694, ,1686,1691,1694,1694,1694,1694, ,1664,1680,1677,1688,1693,1694, ,1523,1270,914,406,41,1, ,553,80,11,3,1,1, ,1601,1186,668,237,26,2, ,67,46,12,0,0,0, ,8,3,0,0,0,0, ,30,14,17,6,1,0, , 96.04, 97.28, 99.29,100.00,100.00,100.00, , 99.53, 99.82,100.00,100.00,100.00,100.00, , 98.23, 99.17, 99.00, 99.65, 99.94,100.00, , 51.65, 56.48, 64.79, 80.67, 97.64, 99.94, , 75.30, 95.48, 99.35, 99.82, 99.94, 99.94, , 50.96, 58.62, 71.51, 87.69, 98.49, 99.88, ,
221, 1932,1956,2010,2012,2015,2017, ,2002,2014,2016,2018,2018,2018, ,1969,1982,1997,2013,2016,2018, ,1238,929,539,125,21,1, ,159,40,7,1,0,0, ,1224,815,359,74,11,0, ,88,64,10,8,5,3, ,18,6,4,2,2,2, ,51,38,23,7,4,2, , 95.64, 96.83, 99.50, 99.60, 99.75, 99.85, , 99.11, 99.70, 99.80, 99.90, 99.90, 99.90, , 97.48, 98.12, 98.86, 99.65, 99.80, 99.90, , 60.95, 67.80, 78.85, 94.15, 98.97, 99.95, , 92.64, 98.05, 99.65, 99.95,100.00,100.00, , 61.67, 70.86, 84.76, 96.45, 99.46,100.00, ,
222, 1991,2011,2067,2086,2097,2097, ,2082,2095,2097,2098,2099,2100, ,2037,2058,2077,2094,2096,2098, ,1024,731,336,45,3,3, ,107,15,6,2,2,2, ,980,608,256,36,2,2, ,125,105,49,30,19,19, ,34,21,19,18,17,16, ,79,58,39,22,20,18, , 94.09, 95.04, 97.68, 98.58, 99.10, 99.10, , 98.39, 99.01, 99.10, 99.15, 99.20, 99.24, , 96.27, 97.26, 98.16, 98.96, 99.05, 99.15, , 66.04, 73.34, 86.02, 97.89, 99.86, 99.86, , 95.11, 99.29, 99.71, 99.90, 99.90, 99.90, , 67.52, 77.19, 89.03, 98.31, 99.90, 99.90, ,
223, 2090,2134,2167,2186,2190,2190, ,2178,2187,2190,2190,2190,2190, ,2144,2159,2167,2182,2190,2190, ,1243,936,587,122,4,0, ,201,27,2,0,0,0, ,1213,869,381,77,2,0, ,101,57,24,5,1,1, ,13,4,1,1,1,1, ,47,32,24,9,1,1, , 95.41, 97.36, 98.91, 99.77, 99.95, 99.95, , 99.41, 99.82, 99.95, 99.95, 99.95, 99.95, , 97.86, 98.54, 98.91, 99.59, 99.95, 99.95, , 62.80, 69.58, 78.75, 94.73, 99.82,100.00, , 91.58, 98.78, 99.91,100.00,100.00,100.00, , 63.95, 71.38, 85.09, 96.60, 99.91,100.00, ,
228, 1617,1657,1691,1701,1701,1702, ,1696,1699,1702,1702,1702,1702, ,1662,1673,1695,1702,1702,1702, ,1154,809,385,31,9,10, ,100,24,13,10,10,10, ,1085,664,241,36,11,10, ,86,46,12,2,2,1, ,7,4,1,1,1,1, ,41,30,8,1,1,1, , 94.95, 97.30, 99.30, 99.88, 99.88, 99.94, , 99.59, 99.77, 99.94, 99.94, 99.94, 99.94, , 97.59, 98.24, 99.53, 99.94, 99.94, 99.94, , 58.35, 67.19, 81.45, 98.21, 99.47, 99.42, , 94.43, 98.61, 99.24, 99.42, 99.42, 99.42, , 60.50, 71.59, 87.55, 97.93, 99.36, 99.42, ,
230, 1780,1806,1835,1859,1859,1859, ,1847,1855,1859,1859,1859,1859, ,1826,1832,1844,1857,1858,1859, ,1474,1194,787,323,25,1, ,529,51,9,3,1,1, ,1523,1085,614,178,14,1, ,79,53,24,0,0,0, ,12,4,0,0,0,0, ,33,27,15,2,1,0, , 95.75, 97.15, 98.71,100.00,100.00,100.00, , 99.35, 99.78,100.00,100.00,100.00,100.00, , 98.22, 98.55, 99.19, 99.89, 99.95,100.00, , 54.70, 60.20, 69.98, 85.20, 98.67, 99.95, , 77.74, 97.32, 99.52, 99.84, 99.95, 99.95, , 54.52, 62.80, 75.02, 91.25, 99.25, 99.95, ,
231, 1220,1238,1270,1278,1278,1278, ,1270,1275,1278,1278,1278,1278, ,1249,1253,1267,1272,1278,1278, ,1652,1348,936,650,258,5, ,784,313,22,4,2,1, ,1755,1307,820,374,130,2, ,58,40,8,0,0,0, ,8,3,0,0,0,0, ,29,25,11,6,0,0, , 95.46, 96.87, 99.37,100.00,100.00,100.00, , 99.37, 99.77,100.00,100.00,100.00,100.00, , 97.73, 98.04, 99.14, 99.53,100.00,100.00, , 42.48, 47.87, 57.57, 66.29, 83.20, 99.61, , 61.83, 80.29, 98.31, 99.69, 99.84, 99.92, , 41.58, 48.95, 60.71, 77.28, 90.77, 99.84, ,
232, 1416,1437,1478,1485,1485,1485, ,1482,1482,1485,1485,1485,1485, ,1454,1458,1470,1483,1485,1485, ,1402,1123,769,417,157,13, ,746,172,35,10,5,5, ,1607,1077,667,298,96,11, ,69,48,7,0,0,0, ,3,3,0,0,0,0, ,31,27,15,2,0,0, , 95.35, 96.77, 99.53,100.00,100.00,100.00, , 99.80, 99.80,100.00,100.00,100.00,100.00, , 97.91, 98.18, 98.99, 99.87,100.00,100.00, , 50.25, 56.13, 65.78, 78.08, 90.44, 99.13, , 66.52, 89.60, 97.70, 99.33, 99.66, 99.66, , 47.50, 57.51, 68.79, 83.27, 93.93, 99.26, ,
233, 2453,2493,2543,2551,2553,2553, ,2549,2553,2553,2553,2553,2553, ,2520,2533,2538,2553,2553,2553, ,1074,775,410,74,7,2, ,104,16,5,1,2,3, ,1058,728,294,42,3,1, ,102,62,12,4,2,2, ,6,2,2,2,2,2, ,35,22,17,2,2,2, , 95.98, 97.58, 99.53, 99.84, 99.92, 99.92, , 99.77, 99.92, 99.92, 99.92, 99.92, 99.92, , 98.63, 99.14, 99.34, 99.92, 99.92, 99.92, , 69.59, 76.33, 86.14, 97.19, 99.73, 99.92, , 96.09, 99.38, 99.80, 99.96, 99.92, 99.88, , 70.48, 77.72, 89.64, 98.39, 99.88, 99.96, ,
234, 2190,2240,2280,2290,2290,2290, ,2283,2290,2290,2290,2290,2290, ,2244,2259,2271,2289,2290,2290, ,1166,795,332,40,0,0, ,83,10,3,0,0,0, ,1093,648,210,21,0,0, ,101,51,11,1,1,1, ,8,1,1,1,1,1, ,47,32,20,2,1,1, , 95.59, 97.77, 99.52, 99.96, 99.96, 99.96, , 99.65, 99.96, 99.96, 99.96, 99.96, 99.96, , 97.95, 98.60, 99.13, 99.91, 99.96, 99.96, , 65.26, 73.81, 87.29, 98.28,100.00,100.00, , 96.49, 99.57, 99.87,100.00,100.00,100.00, , 67.25, 77.71, 91.54, 99.09,100.00,100.00, ,
